Name,OutCode,Time,Mem,
idp.sh+assignment.idp+assignment_10.struc+3d18c440,0,2.04,20252,22
idp.sh+assignment.idp+assignment_11.struc+71feff81,0,1.83,16300,17
idp.sh+assignment.idp+assignment_12.struc+a6e53ac2,0,2.72,16824,19
idp.sh+assignment.idp+assignment_13.struc+dbcb7603,0,117.14,26456,30
idp.sh+assignment.idp+assignment_14.struc+10b1b144,0,40.96,23568,22
idp.sh+assignment.idp+assignment_15.struc+4597ec85,0,698.11,39192,
idp.sh+assignment.idp+assignment_16.struc+7a7e27c6,0,697.92,55448,
idp.sh+assignment.idp+assignment_17.struc+af646307,0,697.11,66656,
idp.sh+assignment.idp+assignment_18.struc+e44a9e48,0,697.92,75268,
idp.sh+assignment.idp+assignment_19.struc+1930d989,0,698.19,45272,
idp.sh+assignment.idp+assignment_20.struc+a4f9f11f,0,697.69,54148,
idp.sh+assignment.idp+assignment_21.struc+d9e02c60,0,697.82,60020,
idp.sh+assignment.idp+assignment_22.struc+ec667a1,0,697.37,94936,
idp.sh+assignment.idp+assignment_23.struc+43aca2e2,0,698.24,119572,
idp.sh+assignment.idp+assignment_24.struc+7892de23,0,697.94,87692,
idp.sh+assignment.idp+assignment_25.struc+ad791964,0,698.06,76104,
idp.sh+assignment.idp+assignment_26.struc+e25f54a5,0,697.69,85720,
idp.sh+assignment.idp+assignment_27.struc+17458fe6,0,698.32,115612,
idp.sh+assignment.idp+assignment_28.struc+4c2bcb27,0,697.98,102300,
idp.sh+assignment.idp+assignment_29.struc+81120668,0,697.64,131148,
idp.sh+assignment.idp+assignment_30.struc+cdb1dfe,0,698.35,128876,
idp.sh+assignment.idp+assignment_31.struc+41c1593f,0,698.07,110808,
idp.sh+assignment.idp+assignment_32.struc+76a79480,0,697.97,137004,
idp.sh+assignment.idp+assignment_33.struc+ab8dcfc1,0,697.74,149016,
idp.sh+assignment.idp+assignment_34.struc+e0740b02,0,698.38,185900,
idp.sh+assignment.idp+assignment_35.struc+155a4643,0,698.01,143460,
idp.sh+assignment.idp+assignment_36.struc+4a408184,0,698.09,164572,
idp.sh+assignment.idp+assignment_37.struc+7f26bcc5,0,698.47,187584,
idp.sh+assignment.idp+assignment_38.struc+b40cf806,0,697.98,217880,
idp.sh+assignment.idp+assignment_39.struc+e8f33347,0,698.23,224620,
idp.sh+chromatic_number.idp+anna.col.struc+a9bb2262,0,289.25,292332,11
idp.sh+chromatic_number.idp+fpsol2.i.1.col.struc+9366676c,0,698.1,3853492,
idp.sh+chromatic_number.idp+fpsol2.i.3.col.struc+bd2fccee,0,697.07,3620596,
idp.sh+chromatic_number.idp+games120.col.struc+d0855e90,0,16.94,219224,9
idp.sh+chromatic_number.idp+homer.col.struc+acba8c17,0,3.76,407572,
idp.sh+chromatic_number.idp+huck.col.struc+d8adb3b7,0,2.08,93532,11
idp.sh+chromatic_number.idp+inithx.i.3.col.struc+ca16a3a2,0,697.56,2579980,
idp.sh+chromatic_number.idp+jean.col.struc+6383ac6a,0,4.98,109548,10
idp.sh+chromatic_number.idp+le450_15b.col.struc+a89d7259,0,697.63,2318144,
idp.sh+chromatic_number.idp+le450_15d.col.struc+d266d7db,0,698.47,2666136,
idp.sh+chromatic_number.idp+le450_25a.col.struc+23bc619,0,698.91,2407840,
idp.sh+chromatic_number.idp+le450_25c.col.struc+2c052b9b,0,698.89,3155444,
idp.sh+chromatic_number.idp+le450_5a.col.struc+2cc27bf7,0,698.17,1675012,
idp.sh+chromatic_number.idp+miles1500.col.struc+e68d1086,0,698.26,2359300,
idp.sh+chromatic_number.idp+miles250.col.struc+1545b411,0,9.54,146016,8
idp.sh+chromatic_number.idp+miles500.col.struc+ba568cb9,0,697.72,2621680,
idp.sh+chromatic_number.idp+mulsol.i.4.col.struc+8eeb3a8f,0,80.3,744756,31
idp.sh+chromatic_number.idp+mulsol.i.5.col.struc+23cfed50,0,86.13,630380,31
idp.sh+chromatic_number.idp+myciel4.col.struc+74009e7f,0,0.34,31600,5
idp.sh+chromatic_number.idp+myciel6.col.struc+9dca0401,0,698.03,3178804,
idp.sh+chromatic_number.idp+queen11_11.col.struc+79e9d9f7,0,699.01,3290784,
idp.sh+chromatic_number.idp+queen12_12.col.struc+f0ac5657,0,699.5,2912632,
idp.sh+chromatic_number.idp+queen13_13.col.struc+676ed2b7,0,698.96,3906396,
idp.sh+chromatic_number.idp+queen15_15.col.struc+54f3cb77,0,699,4126880,
idp.sh+chromatic_number.idp+queen16_16.col.struc+cbb647d7,0,699.33,3787276,
idp.sh+chromatic_number.idp+queen7_7.col.struc+5926c8c7,0,2.46,125916,7
idp.sh+chromatic_number.idp+queen8_12.col.struc+de29ab16,0,11.52,350920,12
idp.sh+chromatic_number.idp+school1_nsh.col.struc+8f228da5,0,699.39,3113880,
idp.sh+chromatic_number.idp+school1.col.struc+945eb721,0,699.1,3189148,
idp.sh+chromatic_number.idp+zeroin.i.3.col.struc+a5a7c48f,0,49.36,544208,30
idp.sh+graceful_graphs.idp+0002-triple_cone_6-24-1.fctlst+8fb7b407,0,29.35,39964,1
idp.sh+graceful_graphs.idp+0004-double_cone_6-18-1.fctlst+269464f1,0,699.41,42708,
idp.sh+graceful_graphs.idp+0006-triple_cone_8-32-1.fctlst+fe53d490,0,699.52,168988,
idp.sh+graceful_graphs.idp+0008-clique_path_5_2-25-1.fctlst+6d57eb3d,0,623.25,83404,1
idp.sh+graceful_graphs.idp+0010-triple_cone_9-36-1.fctlst+56e74266,0,699.72,156504,
idp.sh+graceful_graphs.idp+0012-clique_path_7_2-49-1.fctlst+24cb3a56,0,699.53,201512,
idp.sh+graceful_graphs.idp+0014-clique_clique_4_3-30-1.fctlst+95ed153a,0,699.24,173020,
idp.sh+graceful_graphs.idp+0016-suspended_prism_5_2-25-1.fctlst+68db66b4,0,699.46,121400,
idp.sh+graceful_graphs.idp+0018-clique_clique_4_4-48-1.fctlst+f437878,0,699.36,217656,
idp.sh+graceful_graphs.idp+0020-double_cone_12-36-1.fctlst+624c53a8,0,699.71,162768,
idp.sh+graceful_graphs.idp+0022-suspended_prism_6_2-30-1.fctlst+d7ed2236,0,699.56,163700,
idp.sh+graceful_graphs.idp+0024-suspended_prism_5_3-40-1.fctlst+fd28e939,0,699.64,209764,
idp.sh+graceful_graphs.idp+0026-suspended_prism_7_2-35-1.fctlst+ee96b216,0,699.54,211148,
idp.sh+graceful_graphs.idp+0028-clique_path_4_4-36-1.fctlst+7b0a091c,0,699.58,185284,
idp.sh+graceful_graphs.idp+0030-windmill_5_4-40-1.fctlst+5bd03870,0,699.31,232068,
idp.sh+graceful_graphs.idp+0032-suspended_prism_6_3-48-1.fctlst+3ac0288f,0,699.51,312452,
idp.sh+graceful_graphs.idp+0034-doughnut_3_5-30-1.fctlst+d2369808,0,699.43,156632,
idp.sh+graceful_graphs.idp+0036-clique_wheel_4_5-50-1.fctlst+7849944,0,699.54,212800,
idp.sh+graceful_graphs.idp+0038-clique_path_4_5-46-1.fctlst+ff1e6dfd,0,699.59,242652,
idp.sh+graceful_graphs.idp+0040-doughnut_4_5-40-1.fctlst+f2e2794f,0,699.49,212468,
idp.sh+graceful_graphs.idp+0042-clique_path_4_6-56-1.fctlst+8b5377d8,0,699.33,284576,
idp.sh+graceful_graphs.idp+0044-prism_6_3-30-1.fctlst+2e3d2b9b,0,352.77,156972,1
idp.sh+graceful_graphs.idp+0046-prism_5_4-35-1.fctlst+1cb72ff8,0,94.87,119164,1
idp.sh+graceful_graphs.idp+0048-triple_wheel_8-48-1.fctlst+3a2021c5,0,699.17,458836,
idp.sh+graceful_graphs.idp+0050-prism_7_3-35-1.fctlst+20c2f552,0,80.38,116512,1
idp.sh+graceful_graphs.idp+0052-prism_6_4-42-1.fctlst+1d62378,0,699.59,234368,
idp.sh+graceful_graphs.idp+0054-double_wheel_13-52-1.fctlst+c8308a02,0,20.23,85228,1
idp.sh+graceful_graphs.idp+0056-triple_wheel_10-60-1.fctlst+2c084997,0,699.55,555784,
idp.sh+graceful_graphs.idp+0058-prism_6_5-54-1.fctlst+2afa567e,0,699.55,322748,
idp.sh+graceful_graphs.idp+0060-prism_7_4-49-1.fctlst+715201ef,0,699.27,281108,
idp.sh+Hanoi_4_Tower.idp+0001-hanoi_tower-60-0.fctlst+2f64148,0,289.76,387544,32
idp.sh+Hanoi_4_Tower.idp+0003-hanoi_tower-60-0.fctlst+b56db4a,0,374.4,445864,34
idp.sh+Hanoi_4_Tower.idp+0004-hanoi_tower-60-0.fctlst+8f87284b,0,335.18,509348,36
idp.sh+Hanoi_4_Tower.idp+0007-hanoi_tower-60-0.fctlst+1c180f4e,0,699.37,1098108,
idp.sh+Hanoi_4_Tower.idp+0008-hanoi_tower-60-0.fctlst+a0485c4f,0,697.69,1184572,
idp.sh+Hanoi_4_Tower.idp+0010-hanoi_tower-29-0.fctlst+c3a17679,0,61.44,191188,29
idp.sh+Hanoi_4_Tower.idp+0013-hanoi_tower-32-0.fctlst+3714f864,0,202.22,366260,32
idp.sh+Hanoi_4_Tower.idp+0015-hanoi_tower-34-0.fctlst+280874a4,0,528.3,612904,34
idp.sh+Hanoi_4_Tower.idp+0016-hanoi_tower-40-0.fctlst+6ff7afea,0,84.71,219592,24
idp.sh+Hanoi_4_Tower.idp+0020-hanoi_tower-40-0.fctlst+58af3503,0,310.33,439392,31
idp.sh+Hanoi_4_Tower.idp+0022-hanoi_tower-60-0.fctlst+8ad93487,0,41.54,164876,23
idp.sh+Hanoi_4_Tower.idp+0025-hanoi_tower-60-0.fctlst+176a1b8a,0,94.59,252196,27
idp.sh+Hanoi_4_Tower.idp+0026-hanoi_tower-60-0.fctlst+9b9a688b,0,109.85,277668,28
idp.sh+Hanoi_4_Tower.idp+0029-hanoi_tower-60-0.fctlst+282b4f8e,0,21.53,148984,32
idp.sh+Hanoi_4_Tower.idp+0030-hanoi_tower-60-0.fctlst+8451eda4,0,25.12,158632,33
idp.sh+Hanoi_4_Tower.idp+0032-hanoi_tower-60-0.fctlst+8cb287a6,0,29.97,198176,35
idp.sh+Hanoi_4_Tower.idp+0033-hanoi_tower-60-0.fctlst+10e2d4a7,0,55.99,225300,36
idp.sh+Hanoi_4_Tower.idp+0035-hanoi_tower-60-0.fctlst+19436ea9,0,107.13,274476,38
idp.sh+Hanoi_4_Tower.idp+0037-hanoi_tower-80-0.fctlst+4b6d6e2d,0,24.85,178176,32
idp.sh+Hanoi_4_Tower.idp+0040-hanoi_tower-80-0.fctlst+aff4a645,0,44.65,194388,35
idp.sh+Hanoi_4_Tower.idp+0043-hanoi_tower-100-0.fctlst+7ff78351,0,21.26,159704,31
idp.sh+Hanoi_4_Tower.idp+0044-hanoi_tower-100-0.fctlst+81d0d670,0,37.79,169280,32
idp.sh+Hanoi_4_Tower.idp+0046-hanoi_tower-100-0.fctlst+85837cae,0,48.62,182316,34
idp.sh+Hanoi_4_Tower.idp+0049-hanoi_tower-120-0.fctlst+b4d8db8d,0,116.09,260880,26
idp.sh+Hanoi_4_Tower.idp+0050-hanoi_tower-120-0.fctlst+dd860037,0,132.86,303624,28
idp.sh+Hanoi_4_Tower.idp+0052-hanoi_tower-120-0.fctlst+e138a675,0,383.53,455404,30
idp.sh+Hanoi_4_Tower.idp+0054-hanoi_tower-120-0.fctlst+e4eb4cb3,0,699.44,732576,
idp.sh+Hanoi_4_Tower.idp+0056-hanoi_tower-120-0.fctlst+e89df2f1,0,698.92,750208,
idp.sh+Hanoi_4_Tower.idp+0057-hanoi_tower-120-0.fctlst+ea774610,0,699.44,1079980,
idp.sh+Hanoi_4_Tower.idp+0060-hanoi_tower-120-0.fctlst+16d710f8,0,699.13,1078308,
idp.sh+knapsack.idp+p100v20w100.1+26b5e8a9,0,695.99,144048,
idp.sh+knapsack.idp+p100v20w100.5+26b5e8ad,0,695.81,69800,
idp.sh+knapsack.idp+p100v20w100.7+26b5e8af,0,695.42,68248,
idp.sh+knapsack.idp+p110v20w100.10+b7b8d206,0,697.19,119616,
idp.sh+knapsack.idp+p110v20w100.2+bb9a9b6b,0,694.26,45416,
idp.sh+knapsack.idp+p110v20w100.4+bb9a9b6d,0,694.57,56500,
idp.sh+knapsack.idp+p120v20w100.1+507f4e2b,0,694.67,58604,
idp.sh+knapsack.idp+p120v20w100.5+507f4e2f,0,694.09,61708,
idp.sh+knapsack.idp+p120v20w100.9+507f4e33,0,695.35,56504,
idp.sh+knapsack.idp+p130v20w100.2+e56400ed,0,694.81,53924,
idp.sh+knapsack.idp+p130v20w100.4+e56400ef,0,695.34,74304,
idp.sh+knapsack.idp+p130v20w100.8+e56400f3,0,696.65,71228,
idp.sh+knapsack.idp+p40v20w100.1+7c446b8c,0,0.89,17916,98
idp.sh+knapsack.idp+p40v20w100.5+7c446b90,0,0.8,17948,112
idp.sh+knapsack.idp+p40v20w100.7+7c446b92,0,0.76,17924,112
idp.sh+knapsack.idp+p50v20w100.10+13faab83,0,4.51,23512,156
idp.sh+knapsack.idp+p50v20w100.2+11291e4e,0,2.85,21004,155
idp.sh+knapsack.idp+p50v20w100.6+11291e52,0,3.42,22404,155
idp.sh+knapsack.idp+p60v20w100.5+a60dd112,0,28.55,26000,142
idp.sh+knapsack.idp+p60v20w100.7+a60dd114,0,34.52,22640,142
idp.sh+knapsack.idp+p70v20w100.10+235df641,0,253.82,44348,176
idp.sh+knapsack.idp+p70v20w100.2+3af283d0,0,695.08,49936,
idp.sh+knapsack.idp+p70v20w100.6+3af283d4,0,388.25,28716,167
idp.sh+knapsack.idp+p70v20w100.8+3af283d6,0,415.98,36704,177
idp.sh+knapsack.idp+p80v20w100.1+cfd73690,0,697.01,82124,
idp.sh+knapsack.idp+p80v20w100.5+cfd73694,0,696.1,59900,
idp.sh+knapsack.idp+p80v20w100.9+cfd73698,0,694.85,54532,
idp.sh+knapsack.idp+p90v20w100.10+32c140ff,0,696.76,94572,
idp.sh+knapsack.idp+p90v20w100.4+64bbe954,0,696.73,60580,
idp.sh+knapsack.idp+p90v20w100.6+64bbe956,0,695.78,71636,
idp.sh+max_clique.idp+0001-Maximal_Clique-225-0.asp+1eb4f5a1,0,698.55,227244,
idp.sh+max_clique.idp+0002-Maximal_Clique-225-0.asp+208e48c0,0,698.25,189276,
idp.sh+max_clique.idp+0003-Maximal_Clique-225-0.asp+22679bdf,0,698.33,215772,
idp.sh+max_clique.idp+0005-Maximal_Clique-250-0.asp+553ea075,0,698.55,248380,
idp.sh+max_clique.idp+0007-Maximal_Clique-250-0.asp+58f146b3,0,698.26,214360,
idp.sh+max_clique.idp+0008-Maximal_Clique-250-0.asp+5aca99d2,0,698.81,224800,
idp.sh+max_clique.idp+0009-Maximal_Clique-275-0.asp+34e56ef4,0,698.22,248604,
idp.sh+max_clique.idp+0011-Maximal_Clique-275-0.asp+5f6be6bd,0,698.28,196268,
idp.sh+max_clique.idp+0014-Maximal_Clique-300-0.asp+1994ecbd,0,698.19,217488,
idp.sh+max_clique.idp+0015-Maximal_Clique-300-0.asp+1b6e3fdc,0,698.73,300528,
idp.sh+max_clique.idp+0016-Maximal_Clique-300-0.asp+1d4792fb,0,698.18,268580,
idp.sh+max_clique.idp+0017-Maximal_Clique-325-0.asp+f762681d,0,698.53,294560,
idp.sh+max_clique.idp+0020-Maximal_Clique-325-0.asp+23c23305,0,697.79,216024,
idp.sh+max_clique.idp+0021-Maximal_Clique-350-0.asp+54bfe47c,0,697.82,277656,
idp.sh+max_clique.idp+0023-Maximal_Clique-350-0.asp+58728aba,0,698.68,297756,
idp.sh+max_clique.idp+0025-Maximal_Clique-375-0.asp+3466b2fb,0,698.37,305776,
idp.sh+max_clique.idp+0026-Maximal_Clique-375-0.asp+3640061a,0,698.76,364416,
idp.sh+max_clique.idp+0027-Maximal_Clique-375-0.asp+38195939,0,698.04,276900,
idp.sh+max_clique.idp+0031-Maximal_Clique-400-0.asp+1aef83e3,0,698.93,298804,
idp.sh+max_clique.idp+0032-Maximal_Clique-400-0.asp+1cc8d702,0,698.91,311896,
idp.sh+max_clique.idp+0033-Maximal_Clique-425-0.asp+f6e3ac24,0,698.23,350636,
idp.sh+max_clique.idp+0036-Maximal_Clique-425-0.asp+fc6fa581,0,698.46,377508,
idp.sh+max_clique.idp+0037-Maximal_Clique-450-0.asp+2d6d56f8,0,698.64,376548,
idp.sh+max_clique.idp+0038-Maximal_Clique-450-0.asp+2f46aa17,0,698.68,457204,
idp.sh+max_clique.idp+0039-Maximal_Clique-450-0.asp+311ffd36,0,698.42,503920,
idp.sh+max_clique.idp+0041-Maximal_Clique-475-0.asp+33e7f702,0,699.03,512396,
idp.sh+max_clique.idp+0044-Maximal_Clique-475-0.asp+3973f05f,0,698.96,380072,
idp.sh+max_clique.idp+0045-Maximal_Clique-500-0.asp+efea5021,0,698.6,450080,
idp.sh+max_clique.idp+0047-Maximal_Clique-500-0.asp+f39cf65f,0,698.01,391000,
idp.sh+max_clique.idp+0049-Maximal_Clique-600-0.asp+8b940b9e,0,698.88,685396,
idp.sh+NQueens_CP.idp+100.idp+2af336f2,0,7.69,102308,1
idp.sh+NQueens_CP.idp+150.idp+337b720d,0,18.71,199632,1
idp.sh+NQueens_CP.idp+200.idp+5fd97233,0,329.39,358804,1
idp.sh+NQueens_CP.idp+250.idp+6861ad4e,0,103.43,516772,1
idp.sh+NQueens_CP.idp+300.idp+94bfad74,0,495.34,769200,1
idp.sh+NQueens_CP.idp+350.idp+9d47e88f,0,699.22,1020404,
idp.sh+NQueens_CP.idp+400.idp+c9a5e8b5,0,698.48,1298180,
idp.sh+NQueens_CP.idp+450.idp+d22e23d0,0,698.95,1580212,
idp.sh+NQueens_CP.idp+50.idp+293e47e8,0,0.56,35952,1
idp.sh+NQueens_CP.idp+500.idp+fe8c23f6,0,698.83,1890696,
idp.sh+NQueens_CP.idp+550.idp+7145f11,0,698.75,2061984,
idp.sh+NQueens_CP.idp+600.idp+33725f37,0,698.52,2577728,
idp.sh+NQueens_CP.idp+650.idp+3bfa9a52,0,698.11,3133276,
idp.sh+NQueens_CP.idp+700.idp+68589a78,0,697.99,3704988,
idp.sh+NQueens_CP.idp+750.idp+70e0d593,0,697.51,4155624,
idp.sh+NQueens_logic.idp+100.idp+5c297c37,0,2.67,47416,1
idp.sh+NQueens_logic.idp+150.idp+64b1b752,0,8.49,81684,1
idp.sh+NQueens_logic.idp+200.idp+910fb778,0,19.95,129420,1
idp.sh+NQueens_logic.idp+250.idp+9997f293,0,38.67,186420,1
idp.sh+NQueens_logic.idp+300.idp+c5f5f2b9,0,68,268436,1
idp.sh+NQueens_logic.idp+350.idp+ce7e2dd4,0,108.69,344880,1
idp.sh+NQueens_logic.idp+400.idp+fadc2dfa,0,165.19,444012,1
idp.sh+NQueens_logic.idp+450.idp+3646915,0,238.32,558472,1
idp.sh+NQueens_logic.idp+50.idp+b737c603,0,0.53,28388,1
idp.sh+NQueens_logic.idp+500.idp+2fc2693b,0,329.78,675688,1
idp.sh+NQueens_logic.idp+550.idp+384aa456,0,451.65,820488,1
idp.sh+NQueens_logic.idp+600.idp+64a8a47c,0,579.15,967860,1
idp.sh+NQueens_logic.idp+650.idp+6d30df97,0,699.82,628992,
idp.sh+NQueens_logic.idp+700.idp+998edfbd,0,699.88,716756,
idp.sh+NQueens_logic.idp+750.idp+a2171ad8,0,699.75,837420,
idp.sh+permutation_pattern_matching.idp+0004-ppm-200-0.fctlst+c681b102,0,15.77,117656,0
idp.sh+permutation_pattern_matching.idp+0014-ppm-200-0.fctlst+942c12c3,0,21.39,104680,0
idp.sh+permutation_pattern_matching.idp+0021-ppm-250-0.fctlst+fc984bec,0,36.75,170204,0
idp.sh+permutation_pattern_matching.idp+0027-ppm-250-0.fctlst+980398a6,0,0.64,46600,1
idp.sh+permutation_pattern_matching.idp+0037-ppm-250-0.fctlst+65adfa67,0,13.85,205680,0
idp.sh+permutation_pattern_matching.idp+0041-ppm-350-0.fctlst+9f9eb4cd,0,245.37,520820,0
idp.sh+permutation_pattern_matching.idp+0050-ppm-200-0.fctlst+b88e114b,0,0.64,37080,1
idp.sh+permutation_pattern_matching.idp+0054-ppm-250-0.fctlst+b34d178c,0,17.88,178820,0
idp.sh+permutation_pattern_matching.idp+0060-ppm-200-0.fctlst+8638730c,0,14.77,109248,0
idp.sh+permutation_pattern_matching.idp+0070-ppm-20-0.fctlst+732b3905,0,0.17,18548,0
idp.sh+permutation_pattern_matching.idp+0075-ppm-50-0.fctlst+c52aa74d,0,0.16,18604,1
idp.sh+permutation_pattern_matching.idp+0080-ppm-70-0.fctlst+203498e9,0,0.26,29776,0
idp.sh+permutation_pattern_matching.idp+0086-ppm-50-0.fctlst+da66676d,0,0.22,22976,0
idp.sh+permutation_pattern_matching.idp+0093-ppm-70-0.fctlst+d6c4150b,0,0.32,33016,0
idp.sh+permutation_pattern_matching.idp+0099-ppm-50-0.fctlst+90f5e38f,0,0.18,22192,0
idp.sh+permutation_pattern_matching.idp+0106-ppm-70-0.fctlst+ad4b1db8,0,0.15,24640,1
idp.sh+permutation_pattern_matching.idp+0112-ppm-70-0.fctlst+2f3587d3,0,0.26,31976,0
idp.sh+permutation_pattern_matching.idp+0118-ppm-50-0.fctlst+e9675657,0,0.17,18800,1
idp.sh+permutation_pattern_matching.idp+0126-ppm-120-0.fctlst+f4b3cf44,0,0.91,37192,0
idp.sh+permutation_pattern_matching.idp+0131-ppm-120-0.fctlst+eb84c66a,0,1.03,37180,0
idp.sh+permutation_pattern_matching.idp+0137-ppm-120-0.fctlst+86f01324,0,2.09,41324,0
idp.sh+permutation_pattern_matching.idp+0143-ppm-90-0.fctlst+f75e71b3,0,0.55,34600,0
idp.sh+permutation_pattern_matching.idp+0147-ppm-140-0.fctlst+7e63da67,0,1.71,59224,0
idp.sh+permutation_pattern_matching.idp+0155-ppm-120-0.fctlst+99211268,0,0.81,55700,0
idp.sh+permutation_pattern_matching.idp+0165-ppm-120-0.fctlst+66cb7429,0,0.26,23468,1
idp.sh+permutation_pattern_matching.idp+0171-ppm-90-0.fctlst+a3c05c0e,0,0.48,34972,0
idp.sh+permutation_pattern_matching.idp+0177-ppm-140-0.fctlst+e762ffaa,0,1.65,70396,0
idp.sh+permutation_pattern_matching.idp+0184-ppm-120-0.fctlst+3d8e558c,0,0.95,43824,0
idp.sh+permutation_pattern_matching.idp+0189-ppm-140-0.fctlst+3e3125a9,0,2.84,62192,0
idp.sh+permutation_pattern_matching.idp+0195-ppm-120-0.fctlst+cfca996c,0,0.96,48204,0
idp.sh+shortest_path.idp+bays29.tsp.struc+9c2d2c1,0,237.47,151396,167
idp.sh+shortest_path.idp+br17.atsp.struc+f3fe7e4c,0,3.9,23376,5
idp.sh+shortest_path.idp+ch130.tsp.struc+db914f30,0,699.04,810264,
idp.sh+shortest_path.idp+ch150.tsp.struc+eaf499ee,0,698.4,1793492,
idp.sh+shortest_path.idp+d493.tsp.struc+da5d494b,0,697.48,533924,
idp.sh+shortest_path.idp+eil101.tsp.struc+d0bff34b,0,699.17,445872,
idp.sh+shortest_path.idp+fl417.tsp.struc+3f01607b,0,694.99,1189672,
idp.sh+shortest_path.idp+ft53.atsp.struc+ba6d3f16,0,699.23,434040,
idp.sh+shortest_path.idp+ft70.atsp.struc+805e5bfb,0,699.07,614748,
idp.sh+shortest_path.idp+ftv38.atsp.struc+67efeb0f,0,698.93,256464,
idp.sh+shortest_path.idp+ftv47.atsp.struc+4ec14c31,0,698.54,273500,
idp.sh+shortest_path.idp+ftv64.atsp.struc+14b26916,0,699.06,335836,
idp.sh+shortest_path.idp+gil262.tsp.struc+45754885,0,693.2,2191780,
idp.sh+shortest_path.idp+gr24.tsp.struc+a2bb668e,0,55.35,67968,109
idp.sh+shortest_path.idp+hk48.tsp.struc+61fa1868,0,699.23,516452,
idp.sh+shortest_path.idp+kro124p.atsp.struc+98b34617,0,699.39,623696,
idp.sh+shortest_path.idp+kroA150.tsp.struc+a93f04ba,0,697.63,2859380,
idp.sh+shortest_path.idp+kroB100.tsp.struc+64a4937e,0,699.43,378628,
idp.sh+shortest_path.idp+kroB200.tsp.struc+532799ff,0,695.94,3565880,
idp.sh+shortest_path.idp+lin318.tsp.struc+b6712d4a,0,696.12,683684,
idp.sh+shortest_path.idp+p43.atsp.struc+4c2e7ed,0,699.22,332756,
idp.sh+shortest_path.idp+p654.tsp.struc+c3e6e706,0,699.92,83392,
idp.sh+shortest_path.idp+pa561.tsp.struc+a4aaee06,0,694.22,840732,
idp.sh+shortest_path.idp+pr107.tsp.struc+398b87dd,0,699.21,707320,
idp.sh+shortest_path.idp+pr299.tsp.struc+9716c437,0,696.4,686884,
idp.sh+shortest_path.idp+rat195.tsp.struc+1e0ccde9,0,659.3,4098848,
idp.sh+shortest_path.idp+rat783.tsp.struc+83a3ea0e,0,697.35,1190540,
idp.sh+shortest_path.idp+rbg403.atsp.struc+997c22,0,692.59,787408,
idp.sh+shortest_path.idp+ts225.tsp.struc+56f3e63d,0,696.07,2963968,
idp.sh+shortest_path.idp+u159.tsp.struc+6d243461,0,697.41,2358860,
idp.sh+solitaire.idp+0001-solitaire-24-0.fctlst+753b80dd,0,0.38,30104,1
idp.sh+solitaire.idp+0002-solitaire-24-0.fctlst+bf6d1a1e,0,0.38,28100,1
idp.sh+solitaire.idp+0003-solitaire-24-0.fctlst+99eb35f,0,0.38,28104,1
idp.sh+solitaire.idp+0004-solitaire-25-0.fctlst+4819bdbf,0,0.41,28576,1
idp.sh+solitaire.idp+0005-solitaire-25-0.fctlst+924b5700,0,0.4,30416,1
idp.sh+solitaire.idp+0006-solitaire-25-0.fctlst+dc7cf041,0,0.39,34196,1
idp.sh+solitaire.idp+0007-solitaire-26-0.fctlst+1af7faa1,0,0.42,30928,1
idp.sh+solitaire.idp+0008-solitaire-26-0.fctlst+652993e2,0,0.53,31200,1
idp.sh+solitaire.idp+0009-solitaire-26-0.fctlst+af5b2d23,0,0.43,31208,1
idp.sh+solitaire.idp+0010-solitaire-27-0.fctlst+3e7c9d8,0,0.44,29664,1
idp.sh+solitaire.idp+0011-solitaire-27-0.fctlst+4e196319,0,0.41,35000,1
idp.sh+solitaire.idp+0012-solitaire-27-0.fctlst+984afc5a,0,0.45,29668,1
idp.sh+solitaire.idp+0013-solitaire-28-0.fctlst+d6c606ba,0,0.49,33968,1
idp.sh+solitaire.idp+0014-solitaire-28-0.fctlst+20f79ffb,0,0.52,30192,1
idp.sh+solitaire.idp+0015-solitaire-28-0.fctlst+6b29393c,0,0.45,33716,1
idp.sh+solitaire.idp+0016-solitaire-29-0.fctlst+a9a4439c,0,3.93,51628,1
idp.sh+solitaire.idp+0017-solitaire-29-0.fctlst+f3d5dcdd,0,3.21,46772,1
idp.sh+solitaire.idp+0018-solitaire-29-0.fctlst+3e07761e,0,0.41,29952,1
idp.sh+solitaire.idp+0019-solitaire-30-0.fctlst+8688c809,0,14.33,92652,1
idp.sh+solitaire.idp+0020-solitaire-30-0.fctlst+e6cbf39f,0,2.34,43552,1
idp.sh+solitaire.idp+0021-solitaire-30-0.fctlst+30fd8ce0,0,1.75,38596,1
idp.sh+solitaire.idp+0022-solitaire-31-0.fctlst+6f789740,0,699.31,331716,
idp.sh+solitaire.idp+0023-solitaire-31-0.fctlst+b9aa3081,0,699.29,324920,
idp.sh+solitaire.idp+0024-solitaire-31-0.fctlst+3dbc9c2,0,557.93,265836,1
idp.sh+solitaire.idp+0025-solitaire-32-0.fctlst+4256d422,0,699.16,319012,
idp.sh+solitaire.idp+0026-solitaire-32-0.fctlst+8c886d63,0,699.12,353008,
idp.sh+solitaire.idp+0027-solitaire-32-0.fctlst+d6ba06a4,0,699.26,330672,
idp.sh+traveling_salesman.idp+a280.tsp.struc+f61e4c67,0,693.86,4154148,
idp.sh+traveling_salesman.idp+bays29.tsp.struc+3f22ca1e,0,699.29,298736,
idp.sh+traveling_salesman.idp+bier127.tsp.struc+fd1c22c,0,699.43,1655708,
idp.sh+traveling_salesman.idp+br17.atsp.struc+2743a74f,0,698.66,94644,
idp.sh+traveling_salesman.idp+d198.tsp.struc+5c0bde2a,0,696.68,4187480,
idp.sh+traveling_salesman.idp+eil51.tsp.struc+40e5938e,0,699.01,448720,
idp.sh+traveling_salesman.idp+ft53.atsp.struc+edb26819,0,699.39,403728,
idp.sh+traveling_salesman.idp+ft70.atsp.struc+b3a384fe,0,699.54,1069424,
idp.sh+traveling_salesman.idp+ftv170.atsp.struc+9845bc63,0,596.95,4114408,
idp.sh+traveling_salesman.idp+ftv33.atsp.struc+76d7a791,0,698.41,305892,
idp.sh+traveling_salesman.idp+ftv38.atsp.struc+9d4fe26c,0,699.19,443884,
idp.sh+traveling_salesman.idp+ftv47.atsp.struc+8421438e,0,699.14,413744,
idp.sh+traveling_salesman.idp+ftv64.atsp.struc+4a126073,0,699.29,529064,
idp.sh+traveling_salesman.idp+gr24.tsp.struc+77b912b,0,699.16,283348,
idp.sh+traveling_salesman.idp+kro124p.atsp.struc+f5f2da34,0,699.33,938264,
idp.sh+traveling_salesman.idp+kroA150.tsp.struc+1fddf8fd,0,697.71,3706472,
idp.sh+traveling_salesman.idp+kroC100.tsp.struc+bd215160,0,699.35,937344,
idp.sh+traveling_salesman.idp+kroD100.tsp.struc+9eff1aff,0,699.43,1425776,
idp.sh+traveling_salesman.idp+lin105.tsp.struc+486b5a03,0,699.51,1410856,
idp.sh+traveling_salesman.idp+linhp318.tsp.struc+57e7725f,0,691.77,3848924,
idp.sh+traveling_salesman.idp+pa561.tsp.struc+d7f01709,0,699.73,2114112,
idp.sh+traveling_salesman.idp+pcb442.tsp.struc+48ca7141,0,698.17,2028072,
idp.sh+traveling_salesman.idp+pr76.tsp.struc+4889481f,0,699.44,927492,
idp.sh+traveling_salesman.idp+rbg323.atsp.struc+7260b3c8,0,322.6,4260320,
idp.sh+traveling_salesman.idp+rbg358.atsp.struc+64620226,0,695.87,3706240,
idp.sh+traveling_salesman.idp+rbg403.atsp.struc+77387065,0,690.92,2809012,
idp.sh+traveling_salesman.idp+rbg443.atsp.struc+31448a69,0,646.01,4551484,
idp.sh+traveling_salesman.idp+ry48p.atsp.struc+dacae74,0,698.59,470316,
idp.sh+traveling_salesman.idp+swiss42.tsp.struc+af128f4d,0,698.67,376980,
idp.sh+traveling_salesman.idp+tsp225.tsp.struc+992e5402,0,421.74,4117808,
idp.sh+travelingtournament.idp+galaxy10.idp+807f95c0,0,699.49,419808,
idp.sh+travelingtournament.idp+galaxy12.idp+809bc4c2,0,699.14,282392,
idp.sh+travelingtournament.idp+galaxy14.idp+80b7f3c4,0,699.28,440612,
idp.sh+travelingtournament.idp+galaxy16.idp+80d422c6,0,699.01,664348,
idp.sh+travelingtournament.idp+galaxy4.idp+b1babb61,0,0.94,33452,416
idp.sh+travelingtournament.idp+galaxy6.idp+b1d6ea63,0,699.43,180200,
idp.sh+travelingtournament.idp+NL10.idp+196a76ee,0,699.29,490700,
idp.sh+travelingtournament.idp+NL12.idp+1986a5f0,0,699.79,283476,
idp.sh+travelingtournament.idp+NL14.idp+19a2d4f2,0,699.38,460268,
idp.sh+travelingtournament.idp+NL16.idp+19bf03f4,0,699.33,673804,
idp.sh+travelingtournament.idp+NL4.idp+f077fc73,0,0.98,29788,8276
idp.sh+travelingtournament.idp+NL6.idp+f0942b75,0,699.61,219296,
idp.sh+travelingtournament.idp+NL8.idp+f0b05a77,0,699.54,312932,
idp.sh+travelingtournament.idp+NL8.idp+f0b05a77,0,699.52,257280,
idp.sh+travelingtournament.idp+Super10.idp+5db55bf7,0,699.5,489968,
idp.sh+travelingtournament.idp+Super12.idp+5dd18af9,0,699.73,307752,
idp.sh+travelingtournament.idp+Super14.idp+5dedb9fb,0,699.69,452200,
idp.sh+travelingtournament.idp+Super4.idp+e227d24a,0,0.87,30016,63405
idp.sh+travelingtournament.idp+Super6.idp+e244014c,0,698.79,245904,
idp.sh+travelingtournament.idp+Super8.idp+e260304e,0,698.83,345544,
idp.sh+umpire.idp+Umps10.idp+2ef916c,0,699.06,1953688,
idp.sh+umpire.idp+Umps10A.idp+5bf39a83,0,699.12,1837424,
idp.sh+umpire.idp+Umps10B.idp+5c01b204,0,699.35,1851032,
idp.sh+umpire.idp+Umps10C.idp+5c0fc985,0,699.1,1822196,
idp.sh+umpire.idp+Umps12.idp+30bc06e,0,698.64,4638860,
idp.sh+umpire.idp+Umps14.idp+327ef70,0,48.35,5968140,
idp.sh+umpire.idp+Umps14A.idp+62c6fcff,0,50.12,5969908,
idp.sh+umpire.idp+Umps14B.idp+62d51480,0,49.83,5972848,
idp.sh+umpire.idp+Umps14C.idp+62e32c01,0,50.3,5970440,
idp.sh+umpire.idp+Umps16.idp+3441e72,0,48.07,5931324,
idp.sh+umpire.idp+Umps16A.idp+6630ae3d,0,49.18,5929892,
idp.sh+umpire.idp+Umps16B.idp+663ec5be,0,48.62,5930784,
idp.sh+umpire.idp+Umps16C.idp+664cdd3f,0,48,5933004,
idp.sh+umpire.idp+Umps30.idp+65942aa,0,22.74,5409364,
idp.sh+umpire.idp+Umps4.idp+10c69a35,0,0.28,40056,5176
idp.sh+umpire.idp+Umps6.idp+10e2c937,0,1.5,202400,14077
idp.sh+umpire.idp+Umps6A.idp+c675c18,0,1.66,204236,15457
idp.sh+umpire.idp+Umps6B.idp+c757399,0,1.71,206040,16716
idp.sh+umpire.idp+Umps6C.idp+c838b1a,0,1.38,201840,14396
idp.sh+umpire.idp+Umps8.idp+10fef839,0,5.7,658696,34311
idp.sh+umpire.idp+Umps8A.idp+fd10d56,0,5.39,654684,31490
idp.sh+umpire.idp+Umps8B.idp+fdf24d7,0,5.97,656748,32731
idp.sh+umpire.idp+Umps8C.idp+fed3c58,0,5.99,656764,29879
